{
  "project_info": {
    "project_number": "1088327310436",
    "firebase_url": "https://uber-clone-e8f14.firebaseio.com",
    "project_id": "uber-clone-e8f14",
    "storage_bucket": "uber-clone-e8f14.appspot.com"
  },
  "client": [
    {
      "client_info": {
        "mobilesdk_app_id": "1:1088327310436:android:239066d68ffd8a62",
        "android_client_info": {
          "package_name": "com.IntLog.IntLog"
        }
      },
      "oauth_client": [
        {
          "client_id": "1088327310436-hrfs1n8uujblksn8hpjtkeetfg8p34f5.apps.googleusercontent.com",
          "client_type": 3
        }
      ],
      "api_key": [
        {
          "current_key": "AIzaSyC9O5HC7oVuVTwF6WrYbFu3I1KaxxWtBvo"
        }
      ],
      "services": {
        "appinvite_service": {
          "other_platform_oauth_client": [
            {
              "client_id": "1088327310436-hrfs1n8uujblksn8hpjtkeetfg8p34f5.apps.googleusercontent.com",
              "client_type": 3
            }
          ]
        }
      }
    }
  ],
  "configuration_version": "1"
}